Comparisons of Fst computations • assigner
…
If you haven’t run the codes above:

fst.summary <- readr::read_tsv(file = "fst.summary.tsv", col_types = "ccnnnnnnnn")
fst.summary

## # A tibble: 36 x 10
##    POP1  POP2  ASSIGNER DIVERSITY GENODIVE HIERFSTAT STAMPP STRATAG
##    <chr> <chr>    <dbl>     <dbl>    <dbl>     <dbl>  <dbl>   <dbl>
##  1 G100  G102     0.123     0.123    0.115     0.123  0.123   0.123
##  2 G100  G103     0.210     0.210    0.215     0.210  0.211   0.211
##  3 G100  G108     0.394     0.395    0.39      0.394  0.394   0.394
##  4 G100  G109     0.299     0.299    0.287     0.299  0.299   0.299
##  5 G100  G111     0.369     0.370    0.356     0.369  0.369   0.369
##  6 G100  G118     0.169     0.169    0.156     0.169  0.169   0.169
##  7 G100  G122     0.269     0.270    0.255     0.269  0.269   0.269
##  8 G100  G124     0.366     0.366    0.362     0.366  0.366   0.366
##  9 G102  G103     0.118     0.118    0.115     0.118  0.119   0.119
## 10 G102  G108     0.322     0.323    0.319     0.322  0.322   0.322
## # … with 26 more rows, and 2 more variables: SNPRELATE_MEAN <dbl>,
## #   SNPRELATE_WEIGHTED <dbl>
…
I prefer to look at it in a tibble…

Generate a tibble for correlation results

fst.corr.tibble <- radiator::distance2tibble(
    x = fst.corr, 
    na.diag = TRUE, 
    relative = FALSE, 
    pop.levels = c("HIERFSTAT", "STRATAG", "ASSIGNER", "DIVERSITY", "STAMPP", "GENODIVE", "SNPRELATE_MEAN", "SNPRELATE_WEIGHTED")) %>%
      magrittr::set_colnames(x = ., value = c("ID1", "ID2", "CORRELATION")) %>% 
  dplyr::arrange(dplyr::desc(CORRELATION))
fst.corr.tibble

## # A tibble: 28 x 3
##    ID1       ID2       CORRELATION
##    <ord>     <ord>           <dbl>
##  1 ASSIGNER  HIERFSTAT        1   
##  2 STAMPP    STRATAG          1   
##  3 ASSIGNER  DIVERSITY        1.00
##  4 DIVERSITY HIERFSTAT        1.00
##  5 ASSIGNER  STAMPP           1.00
##  6 HIERFSTAT STAMPP           1.00
##  7 ASSIGNER  STRATAG          1.00
##  8 HIERFSTAT STRATAG          1.00
##  9 DIVERSITY STAMPP           1.00
## 10 DIVERSITY STRATAG          1.00
## # … with 18 more rows
…
Generate the correlation tibble:

fst.corr.tibble.sim01 <- round(cor(x = dplyr::select(fst.summary.sim01, -POP1, -POP2)), 6) %>% 
 radiator::distance2tibble(
  x = ., 
  na.diag = TRUE, 
  relative = FALSE, 
  pop.levels = c("HIERFSTAT_SIM01", "STRATAG_SIM01", "ASSIGNER_SIM01", "DIVERSITY_SIM01", "STAMPP_SIM01", "GENODIVE_SIM01", "SNPRELATE_MEAN_SIM01", "SNPRELATE_WEIGHTED_SIM01")) %>%
  magrittr::set_colnames(x = ., value = c("ID1", "ID2", "CORRELATION_SIM01")) %>% 
  dplyr::arrange(dplyr::desc(CORRELATION_SIM01))
fst.corr.tibble.sim01

## # A tibble: 28 x 3
##    ID1             ID2             CORRELATION_SIM01
##    <ord>           <ord>                       <dbl>
##  1 ASSIGNER_SIM01  DIVERSITY_SIM01                 1
##  2 ASSIGNER_SIM01  GENODIVE_SIM01                  1
##  3 DIVERSITY_SIM01 GENODIVE_SIM01                  1
##  4 ASSIGNER_SIM01  HIERFSTAT_SIM01                 1
##  5 DIVERSITY_SIM01 HIERFSTAT_SIM01                 1
##  6 GENODIVE_SIM01  HIERFSTAT_SIM01                 1
##  7 ASSIGNER_SIM01  STAMPP_SIM01                    1
##  8 DIVERSITY_SIM01 STAMPP_SIM01                    1
##  9 GENODIVE_SIM01  STAMPP_SIM01                    1
## 10 HIERFSTAT_SIM01 STAMPP_SIM01                    1
## # … with 18 more rows
…
Generate the correlation tibble:

fst.corr.tibble.sim02 <- round(cor(x = dplyr::select(fst.summary.sim02, -POP1, -POP2)), 6) %>% 
 radiator::distance2tibble(
  x = ., 
  na.diag = TRUE, 
  relative = FALSE, 
  pop.levels = c("HIERFSTAT_SIM02", "STRATAG_SIM02", "ASSIGNER_SIM02", "DIVERSITY_SIM02", "STAMPP_SIM02", "GENODIVE_SIM02", "SNPRELATE_MEAN_SIM02", "SNPRELATE_WEIGHTED_SIM02")) %>%
  magrittr::set_colnames(x = ., value = c("ID1", "ID2", "CORRELATION_SIM02")) %>% 
  dplyr::arrange(dplyr::desc(CORRELATION_SIM02))
fst.corr.tibble.sim02

## # A tibble: 28 x 3
##    ID1             ID2             CORRELATION_SIM02
##    <ord>           <ord>                       <dbl>
##  1 DIVERSITY_SIM02 GENODIVE_SIM02                  1
##  2 DIVERSITY_SIM02 HIERFSTAT_SIM02                 1
##  3 GENODIVE_SIM02  HIERFSTAT_SIM02                 1
##  4 DIVERSITY_SIM02 STAMPP_SIM02                    1
##  5 GENODIVE_SIM02  STAMPP_SIM02                    1
##  6 HIERFSTAT_SIM02 STAMPP_SIM02                    1
##  7 DIVERSITY_SIM02 STRATAG_SIM02                   1
##  8 GENODIVE_SIM02  STRATAG_SIM02                   1
##  9 HIERFSTAT_SIM02 STRATAG_SIM02                   1
## 10 STAMPP_SIM02    STRATAG_SIM02                   1
## # … with 18 more rows
…
